Activity,2021 Q4,2022 Q1,2022 Q2,2022 Q3,2022 Q4,2023 Q1,2023 Q2,2023 Q3,2023 Q4,2024 Q1,2024 Q2,2024 Q3
Data acquisition,❌,,,,,,,,,,,
Data inspection,❌,,,,,,,,,,,
Data pre-processing,❌,,,,,,,,,,,
Data validation,❌,,,,,,,,,,,
AI for radiograph classification,❌,❌,,,,,,,,,,
Article writing: AI for radiograph classification,❌,❌,,,,,,,,,,
AI for abnormality detection,,,❌,❌,,,,,,,,
AI for abnormality localisation,,,,,❌,❌,❌,,,,,
AI for abnormality classification,,,,,❌,❌,❌,,,,,
"Article writing: AI for abnormality detection, localisation, and classification",,,❌,❌,❌,❌,❌,,,,,
AI for risk assessment of racehorse candidate,,,,,,,,❌,❌,❌,,
Article writing: AI for risk assessment of racehorse candidate,,,,,,,,❌,❌,❌,,
Thesis writing,❌,❌,❌,❌,❌,❌,❌,❌,❌,❌,❌,
Submission of thesis (end of May 2024),,,,,,,,,,,❌,
Thesis examination (end of August 2024),,,,,,,,,,,,❌
Thesis corrections,,,,,,,,,,,,❌
Graduation,,,,,,,,,,,,❌
